Drug	nrDiseases
Lepirudin	12
Cetuximab	27
Denileukin diftitox	11
Etanercept	62
Peginterferon alfa-2a	1
Alteplase	4
Sermorelin	0
Darbepoetin alfa	3
Urokinase	17
Pegfilgrastim	0
Sargramostim	0
Antihemophilic factor, human recombinant	5
Anakinra	3
Immune Globulin Human	11
Insulin Human	5
Tenecteplase	4
Interferon gamma-1b	0
Desmopressin	0
Coagulation factor VIIa Recombinant Human	2
Palifermin	8
Botulinum Toxin Type B	0
Omalizumab	0
Lyme disease vaccine (recombinant OspA)	6
Insulin Lispro	5
Somatotropin	3
Abciximab	7
Drotrecogin alfa	6
Gemtuzumab ozogamicin	2
Alpha-1-proteinase inhibitor	0
Eptifibatide	6
Insulin Pork	5
Trastuzumab	13
Rituximab	4
Basiliximab	9
Muromonab	2
Ibritumomab tiuxetan	4
Tositumomab	4
Botulinum toxin type A	4
Streptokinase	4
Ciclosporin	4
Alefacept	1
Efalizumab	2
Antithymocyte immunoglobulin (rabbit)	3
Coagulation Factor IX (Recombinant)	2
Becaplermin	2
Octreotide	3
Natalizumab	1
Bevacizumab	32
Pyridoxal phosphate	14
Cyanocobalamin	4
Pyruvic acid	2
L-Phenylalanine	4
Aspartic acid	8
Alpha-Linolenic Acid	3
Methionine	0
Tyrosine	4
Calcitriol	7
Succinic acid	1
Riboflavin	3
Glutamic Acid	8
Glycine	4
Calcifediol	7
Creatine	9
Ergocalciferol	7
NADH	7
Folic acid	7
Icosapent	48
Pyridoxine	1
Menadione	2
Proline	5
Pravastatin	4
Fluvoxamine	10
Valsartan	3
Ramipril	20
Flunisolide	6
Baclofen	0
Amphetamine	0
Pentagastrin	2
Nicotine	10
Cevimeline	2
Lorazepam	1
Bortezomib	3
Ethchlorvynol	5
Carbidopa	3
Phentermine	19
Indecainide	1
Tramadol	13
Betaxolol	8
Hydroxocobalamin	0
Caffeine	12
Sildenafil	0
Dofetilide	2
Pyrimethamine	7
Reserpine	2
Adapalene	3
Midodrine	5
Torasemide	6
Citalopram	10
Eletriptan	2
Bethanidine	5
Lovastatin	4
Enflurane	3
Pregabalin	1
Temazepam	1
Butabarbital	2
Butalbital	2
Cladribine	9
Mesalazine	9
Benzatropine	4
Ziprasidone	16
Methysergide	12
Cabergoline	11
Phenytoin	5
Diethylstilbestrol	27
Clotrimazole	0
Carmustine	7
Dicoumarol	2
Ropinirole	11
Isradipine	3
Topiramate	1
Amsacrine	7
Theophylline	12
Liothyronine	1
Disopyramide	1
Lidocaine	1
Pamidronic acid	0
Acarbose	0
Conjugated estrogens	27
Amcinonide	6
Atomoxetine	10
Etomidate	1
Etonogestrel	7
Morphine	8
Tranexamic acid	4
Bexarotene	4
Ibutilide	1
Vindesine	1
Chlorthalidone	3
Pentobarbital	2
Valproic Acid	1
Zolmitriptan	6
Acetaminophen	48
Gefitinib	27
Codeine	3
Dihydroergotamine	2
Amitriptyline	12
Tolcapone	11
Indometacin	47
Metformin	1
Methadone	8
Olanzapine	11
Pimecrolimus	9
Metixene	4
Alfuzosin	5
Megestrol acetate	7
Methylergometrine	7
Chlorzoxazone	3
Sapropterin	0
Clozapine	16
Sucralfate	10
Levonorgestrel	7
Norepinephrine	14
Mirtazapine	6
Meprobamate	2
Thiethylperazine	11
Treprostinil	0
Dydrogesterone	7
Mexiletine	1
Dexrazoxane	7
Amlodipine	1
Triamterene	1
Digoxin	2
Sulpiride	11
Profenamine	4
Nimodipine	3
Progesterone	7
Sorafenib	39
Zoledronic acid	0
Eszopiclone	2
Alprazolam	1
Ardeparin	5
Loxapine	11
Remoxipride	11
Carbamoylcholine	1
Rosiglitazone	21
Pramipexole	11
Metocurine Iodide	1
Secobarbital	2
Miglustat	2
Promazine	11
Spironolactone	4
Zolpidem	2
Lindane	1
Nitric Oxide	2
Bendroflumethiazide	3
Allopurinol	5
Trimethoprim	7
Gemcitabine	4
Epirubicin	7
Dipivefrin	10
Droperidol	11
Levothyroxine	1
Meperidine	3
Prazosin	5
Imipramine	10
Acitretin	8
Nabumetone	47
Sodium Tetradecyl Sulfate	2
Fluoxetine	10
Methohexital	2
Chlorpromazine	11
Lenalidomide	0
Raloxifene	27
Celecoxib	47
Brimonidine	2
Sotalol	9
Miglitol	0
Phenindione	2
Flutamide	6
Haloperidol	11
Levallorphan	7
Triflupromazine	1
Dextrothyroxine	1
Aminocaproic Acid	14
Albendazole	1
Alitretinoin	8
Cinchocaine	1
Erlotinib	27
Mephenytoin	1
Rofecoxib	47
Chlormerodrin	1
Toremifene	19
Nortriptyline	12
Vincristine	1
Amoxapine	10
Azelaic acid	3
Pentostatin	2
Bosentan	3
Benzthiazide	5
Carbamazepine	1
Cinnarizine	2
Fondaparinux	0
Vinblastine	2
Propranolol	5
Atropine	6
Fenoprofen	48
Fenfluramine	7
Clonidine	2
Mazindol	10
Valdecoxib	47
Diclofenac	48
Fluticasone propionate	6
Lisuride	11
Doxazosin	2
Fluocinolone acetonide	6
Piperazine	3
Amiloride	2
Labetalol	5
Thiopental	4
Monobenzone	3
Ivermectin	0
Cisapride	2
Sulindac	5
Metaraminol	2
Amodiaquine	1
Imatinib	8
Oxandrolone	6
Nicardipine	3
Fluphenazine	13
Testosterone	6
Bacitracin	1
Niacin	0
Alendronic acid	0
Prednisone	6
Clofibrate	14
Astemizole	1
Adenosine	12
Simvastatin	4
Dextropropoxyphene	8
Mitotane	19
Dyphylline	19
Pentazocine	12
Estrone	19
Trazodone	5
Mecamylamine	8
Acamprosate	22
Tamoxifen	19
Thioridazine	11
Warfarin	2
Midazolam	10
Pentosan Polysulfate	5
Fludrocortisone	10
Mycophenolate mofetil	1
Flurazepam	15
Moexipril	20
Ergotamine	5
Tizanidine	2
Eplerenone	4
Naltrexone	8
Porfimer sodium	8
Paroxetine	10
Clodronic acid	1
Procaine	0
Imiquimod	1
Trimipramine	10
Risperidone	11
Naftifine	1
Meclizine	5
Riluzole	2
Scopolamine	4
Etodolac	47
Tranylcypromine	6
Isoflurane	3
Tretinoin	3
Irinotecan	0
Metyrosine	4
Tirofiban	7
Phenelzine	6
Estradiol	19
Sulfasalazine	58
Tolazoline	2
Tazarotene	1
Fenoldopam	9
Minaprine	1
Ribavirin	1
Phenylbutazone	47
Fentanyl	7
Acetazolamide	3
Disulfiram	7
Levomenthol	3
Diazepam	1
Trifluoperazine	2
Mifepristone	6
Loperamide	3
Dobutamine	3
Levamisole	3
Methylphenobarbital	2
Perphenazine	11
Pseudoephedrine	12
Aminolevulinic acid	5
Tacrolimus	2
Benzphetamine	4
Flupentixol	11
Chlorothiazide	5
Bumetanide	8
Iron Dextran	5
Benzylpenicilloyl Polylysine	1
Ethanol	2
Etacrynic acid	2
Tiagabine	4
Cocaine	10
Quinidine	1
Zonisamide	5
Phenformin	1
Dinoprostone	4
Almotriptan	0
Levosimendan	0
Phenoxybenzamine	4
Azacitidine	10
Mesoridazine	11
Salicylic acid	48
Meclofenamic acid	48
Acetylsalicylic acid	48
Felbamate	7
Hydrocodone	7
Norgestimate	7
Zaleplon	2
Telmisartan	3
Ezetimibe	1
Dipyridamole	0
Ethinylestradiol	19
Ramelteon	3
Dopamine	15
Auranofin	1
Gabapentin	0
Doxorubicin	7
Hydrochlorothiazide	3
Cromoglicic acid	3
Hydroxyurea	4
Ketoprofen	47
Balsalazide	9
Isosorbide Mononitrate	2
Trichlormethiazide	2
Phylloquinone	0
Felodipine	3
Methoxyflurane	2
Irbesartan	3
Mercaptopurine	3
Fenofibrate	14
Thalidomide	16
Memantine	8
Fluocinonide	6
Ergoloid mesylate	27
Ibuprofen	48
Acetophenazine	11
Isoprenaline	8
Melatonin	7
Clonazepam	14
Fludarabine	4
Perhexiline	4
Atorvastatin	4
Etidronic acid	0
Tegaserod	2
Vigabatrin	2
Orlistat	0
Iloprost	0
Pentolinium	4
Ouabain	2
Pimozide	11
Sertraline	10
Heparin	5
Papaverine	8
Nifedipine	3
Amiodarone	1
Diazoxide	5
Phenacemide	4
Anisindione	0
Dutasteride	4
Pioglitazone	21
Carvedilol	5
Sulfinpyrazone	4
Doxepin	10
Amifostine	1
Nefazodone	15
Desipramine	12
Thiamylal	2
Dinoprost tromethamine	0
Arsenic trioxide	0
Moclobemide	3
Orphenadrine	2
Phenobarbital	2
Escitalopram	10
Chlormezanone	1
Podofilox	7
Propafenone	2
Naloxone	7
Domperidone	11
Fluoxymesterone	6
Pergolide	14
Desflurane	3
Brinzolamide	0
Flecainide	1
Estramustine	29
Captopril	20
Zopiclone	8
Tubocurarine	1
Levetiracetam	0
Flumazenil	7
Dezocine	3
Fomepizole	0
Dantrolene	1
Ketamine	0
Aminophylline	8
Mivacurium	1
Levacetylmethadol	7
Paclitaxel	32
Metoclopramide	11
Dexamethasone	6
Levodopa	11
Chlorprothixene	11
Epoprostenol	0
Clomipramine	10
Bepridil	1
Decamethonium	1
Olsalazine	28
Gliquidone	2
Dasatinib	13
Lisdexamfetamine	0
Eculizumab	0
Lapatinib	34
Sitagliptin	0
Sunitinib	12
Alglucosidase alfa	3
Varenicline	5
Mecasermin	7
Pramlintide	3
Abatacept	1
Tetracosactide	1
Glucosamine	27
Oxtriphylline	17
Quinethazone	5
Quinidine barbiturate	6
Amobarbital	2
Mephentermine	7
Rasagiline	5
Aluminium	2
Calcium	0
Ginkgo biloba	0
Yohimbine	2
Bezafibrate	14
Drospirenone	4
Methotrimeprazine	11
Danazol	19
Alfacalcidol	7
gamma-Hydroxybutyric acid	1
Flunitrazepam	1
Clotiazepam	14
Dextroamphetamine	0
Metamfetamine	2
Ursodeoxycholic acid	5
Ketazolam	5
Everolimus	9
Iron	4
Nitrazepam	2
Probucol	4
Periciazine	3
Hydroxychloroquine	1
Molindone	11
Pipotiazine	18
Thiothixene	11
Zuclopenthixol	11
Isopropamide	2
Etoricoxib	47
Rutin	7
Prasterone	6
Taurine	0
Flufenamic Acid	54
Vorinostat	2
Cholic Acid	6
Nicotinamide	17
Lauric acid	31
Pidolic Acid	1
Flavin adenine dinucleotide	49
Tromethamine	0
Doconexent	33
Fructose	9
Dequalinium	0
Nimesulide	50
Zimelidine	10
Maraviroc	2
Cyproterone acetate	6
Tetrabenazine	2
Ixabepilone	2
Dronedarone	16
Omacetaxine mepesuccinate	2
Nilotinib	5
Pegaptanib	3
Milnacipran	10
Flibanserin	10
Clevidipine	2
Permethrin	4
Crofelemer	3
Iloperidone	16
Lofexidine	2
Belinostat	13
Migalastat	0
Abaloparatide	0
Cobimetinib	1
Gallium nitrate	40
Rotigotine	11
Vandetanib	29
Histamine	1
Brivaracetam	0
Ramucirumab	12
Ustekinumab	11
Trastuzumab emtansine	13
Thrombomodulin Alfa	12
Inotuzumab ozogamicin	0
Obeticholic acid	6
Cariprazine	11
Olaratumab	3
Sertindole	11
Mianserin	7
Acetylcysteine	3
Nylidrin	1
Pentaerythritol tetranitrate	5
Canakinumab	40
Romidepsin	2
Ipilimumab	6
Icatibant	3
Tapentadol	7
Regadenoson	10
Asenapine	16
Vernakalant	1
Lacosamide	0
Rivaroxaban	0
Eflornithine	4
Droxidopa	14
Tocilizumab	6
Dapagliflozin	0
Rilonacept	40
Human C1-esterase inhibitor	14
Tyloxapol	8
Prucalopride	2
Pazopanib	20
Midostaurin	4
Reslizumab	4
Catumaxomab	8
Bosutinib	11
Axitinib	12
Dalfampridine	4
Safinamide	5
Pasireotide	2
Vilazodone	13
Sipuleucel-T	1
Betahistine	1
Methacholine	2
Methyltestosterone	6
Norelgestromin	7
Propylhexedrine	2
Fospropofol	4
Velaglucerase alfa	2
Chymopapain	0
Danaparoid	5
Cabazitaxel	1
Human calcitonin	1
Carglumic acid	1
Dalteparin	5
Lanreotide	3
Tinzaparin	5
Dichloroacetic acid	0
Nadroparin	5
Triflusal	15
Lurasidone	16
Hyaluronic acid	28
Lomitapide	2
Crizotinib	17
Ulipristal	7
Brentuximab vedotin	1
Eribulin	1
Cabozantinib	17
Ruxolitinib	12
Belimumab	0
Vemurafenib	11
Perampanel	3
Aflibercept	34
Ocriplasmin	11
Carfilzomib	6
Tofacitinib	1
Regorafenib	18
Ponatinib	13
Fluticasone furoate	6
Dimethyl fumarate	3
Pomalidomide	47
Trametinib	2
Dabrafenib	11
Afatinib	34
Ifenprodil	4
Butriptyline	12
Aliskiren	10
Vorapaxar	4
Vedolizumab	1
Siltuximab	55
Blinatumomab	3
Ibrutinib	0
Vortioxetine	10
Trimetazidine	0
Palbociclib	14
Olaparib	17
Lenvatinib	12
Nintedanib	12
Ivabradine	0
Tetracaine	4
Trimebutine	17
Pinaverium	0
Tixocortol	10
Xanthinol	11
Difluocortolone	10
Somatrem	10
Ancestim	5
Asfotase alfa	3
Turoctocog alfa	13
Nitrous acid	5
Calcium carbimide	0
Stiripentol	1
Eslicarbazepine acetate	2
Dienogest	12
Brexpiprazole	14
Chromic chloride	5
Iron saccharate	4
Dosulepin	24
Lorpiprazole	19
Dexibuprofen	48
Nicorandil	2
Zotepine	6
Lacidipine	3
Methylene blue	9
Moxonidine	0
Bemiparin	5
Technetium Tc-99m tilmanocept	1
Ubidecarenone	2
Sacubitril	5
Alirocumab	2
Tegafur-uracil	19
Daratumumab	2
Technetium Tc-99m nofetumomab merpentan	10
Norgestrel	7
Glycerin	5
Sodium ferric gluconate complex	5
Thonzonium	0
Omega-3-carboxylic acids	12
Foreskin fibroblast (neonatal)	6
Foreskin keratinocyte (neonatal)	106
Omega-3 fatty acids	21
Butamben	4
Anthralin	1
Antithrombin Alfa	12
Pentoxyverine	6
Hexylresorcinol	3
Dihydroergocornine	24
Thrombin	12
Prothrombin	7
Tetradecyl hydrogen sulfate (ester)	2
Lesinurad	1
Human Thrombin	12
Carbon monoxide	0
Atezolizumab	3
Lifitegrast	2
Rupatadine	2
Gestrinone	19
Tasonermin	9
Dibotermin alfa	1
Amifampridine	0
Pitolisant	1
Tafamidis	3
Durvalumab	3
Encorafenib	11
Talazoparib	17
Sarilumab	6
Baricitinib	15
Esketamine	8
Guselkumab	2
Apalutamide	6
Duvelisib	5
Binimetinib	3
Fostamatinib	2
Alpelisib	13
Benralizumab	2
Gilteritinib	7
Erdafitinib	19
Dupilumab	2
Polatuzumab vedotin	0
Brigatinib	27
Propiverine	2
Copanlisib	13
Moxetumomab Pasudotox	0
Ibalizumab	0
Vonicog Alfa	1
Lenograstim	0
Fluciclovine (18F)	0
Protein S human	7
Coagulation factor VII human	6
Anti-inhibitor coagulant complex	18
Antihemophilic factor human	1
Dichlorobenzyl alcohol	5
Bufexamac	48
Mifamurtide	22
Glycyrrhizic acid	5
Lormetazepam	9
Enasidenib	6
Tisagenlecleucel	0
Dotatate gallium Ga-68	3
Netarsudil	0
Nonacog beta pegol	2
Ferric cation	11
Fish oil	48
Tildrakizumab	2
Andexanet alfa	2
Ivosidenib	7
Larotrectinib	9
Tagraxofusp	1
Mecasermin rinfabate	7
