DrugBank.ID	Drug	Targets
DB00071	Insulin Pork	IDE
DB00098	Antithymocyte immunoglobulin (rabbit)	ITGB1
DB00118	Ademetionine	COMT
DB00126	Ascorbic Acid	PLOD2
DB00142	Glutamic Acid	AASS
DB00143	Glutathione	GPX1
DB00144	Phosphatidyl serine	SCARB1
DB00156	L-Threonine	TARS2
DB00157	NADH	AASS;CYB5R3;NDUFB9;IMPDH2;HMOX1
DB00159	Icosapent	ACSL3
DB00174	Asparagine	NARS2
DB00227	Lovastatin	HDAC2
DB00242	Cladribine	POLA1
DB00277	Theophylline	HDAC2
DB00313	Valproic Acid	HDAC2
DB00321	Amitriptyline	SIGMAR1
DB00323	Tolcapone	COMT
DB00409	Remoxipride	SIGMAR1
DB00514	Dextromethorphan	SIGMAR1
DB00540	Nortriptyline	SIGMAR1
DB00626	Bacitracin	IDE
DB00630	Alendronic acid	ATP6V1A
DB00631	Clofarabine	POLA1
DB00652	Pentazocine	SIGMAR1
DB00688	Mycophenolate mofetil	IMPDH2
DB00851	Dacarbazine	POLA2
DB00907	Cocaine	SIGMAR1
DB00928	Azacitidine	DNMT1
DB01033	Mercaptopurine	IMPDH2
DB01035	Procainamide	DNMT1
DB01073	Fludarabine	POLA1
DB01077	Etidronic Acid	ATP6V1A
DB01104	Sertraline	SIGMAR1
DB01133	Tiludronic Acid	ATP6V1A
DB01138	Sulfinpyrazone	ABCC1
DB01223	Aminophylline	HDAC2
DB01280	Nelarabine	POLA1
DB01303	Oxtriphylline	HDAC2
DB01708	Prasterone	SIGMAR1
DB02546	Vorinostat	HDAC2
DB02701	Nicotinamide	SIRT5
DB03147	Flavin Adenine Dinucleotide	CYB5R3;ACADM;GFER 
DB03796	Palmitic Acid	PPT1
DB04820	Nialamide	COMT
DB05015	Belinostat	HDAC2
DB05018	Migalastat	GLA
DB06174	Noscapine	SIGMAR1
DB06176	Romidepsin	HDAC2;ABCC1 
DB09091	Tixocortol	HDAC2
DB09130	Copper	CYB5R3
DB11186	Pentoxyverine	SIGMAR1
DB12010	Fostamatinib	TAOK1;TBK1;CSNK2A2;MARK1;MARK2;MARK3;NEK9 
